^C:\USERS\LEONID\DOCUMENTS\PROGRAMMS\CONSOLEAPPLICATION1\CONSOLEAPPLICATION1.CPP
C:\USERS\LEONID\DOCUMENTS\PROGRAMMS\CONSOLEAPPLICATION1\DEBUG\VC142.PDB
C:\USERS\LEONID\DOCUMENTS\PROGRAMMS\CONSOLEAPPLICATION1\DEBUG\VC142.IDB
C:\USERS\LEONID\DOCUMENTS\PROGRAMMS\CONSOLEAPPLICATION1\DEBUG\CONSOLEAPPLICATION1.OBJ
