^C:\USERS\LEONID\DOCUMENTS\PROGRAMMS\CONSOLEAPPLICATION1\DEBUG\CONSOLEAPPLICATION1.OBJ
C:\USERS\LEONID\DOCUMENTS\PROGRAMMS\CONSOLEAPPLICATION1\DEBUG\CONSOLEAPPLICATION1.EXE
C:\USERS\LEONID\DOCUMENTS\PROGRAMMS\CONSOLEAPPLICATION1\DEBUG\CONSOLEAPPLICATION1.ILK
C:\USERS\LEONID\DOCUMENTS\PROGRAMMS\CONSOLEAPPLICATION1\DEBUG\CONSOLEAPPLICATION1.PDB
