^C:\USERS\ЛЕОНИД\DOCUMENTS\PROGRAMMS\CONSOLEAPPLICATION1\CONSOLEAPPLICATION1.CPP
C:\USERS\Леонид\DOCUMENTS\PROGRAMMS\CONSOLEAPPLICATION1\RELEASE\VC142.PDB
C:\USERS\Леонид\DOCUMENTS\PROGRAMMS\CONSOLEAPPLICATION1\RELEASE\CONSOLEAPPLICATION1.OBJ
