^C:\USERS\ЛЕОНИД\DOCUMENTS\PROGRAMMS\CONSOLEAPPLICATION1\RELEASE\CONSOLEAPPLICATION1.OBJ
C:\USERS\Леонид\DOCUMENTS\PROGRAMMS\CONSOLEAPPLICATION1\RELEASE\CONSOLEAPPLICATION1.EXE
C:\USERS\ЛЕОНИД\DOCUMENTS\PROGRAMMS\CONSOLEAPPLICATION1\RELEASE\CONSOLEAPPLICATION1.PDB
